10101011000001100111111110110110101110110111111101111011101111101111011101000010
11101111110111000001101111111011100110111111111111010100100000101101011010111101
11000110100011111101111100111010010010000111101111100011101011111100110010101011
00100111110100101101101001101110000110100101101101001110100111010101111100011111
10110111101110000110011111101111111111111001111001010100010101000100011011101000
11011111011111000111011011001101011101010001101000111010010100111011111101111001
11011010110101110111011001001010101111111110110100011011100101011111000001111011
01110000001110111111000101111100000010011101010111001101111001001111111110100111
00001000111010100011100011101011111101101111111101101111100011011100111010111110
10001101101001111001010111111000101101110100010011001110111111111111110111010000
11011001010111100001001111001011101001101010100000111001101101000010000101011110
00001010001010010101011000000100100000101101000010100011010110101100111110011101
11110101111011000111110010000101100111101111100100100001111101101011011000101101
11000000011101001101010110111110011101100110101101011111100111001110001100011111
01111100011101110011111101100111011001101111101100011000110011101111110100011111
00010011100110000100011110111101110101001000100011011111001111000001111111101011
11001001111111101100011111000101011011011111111010110001000011100110101000010001
00100010010111011000101010100010011000011000111011111001000001100111110111110011
10001011110010110111011110111111110010101100011011110011111110110101101000111011
10110111110111001010111010110101111101111011110011000101111010110111010001110111
00010110001001010111001111110111011011100010110110011001101110110011110011101111
11100101101001100110110010101010011111001100101101011111011010010011000001100101
11000011011100111010110111001001010100110111110011110101001110101111111111110111
11111111101101000111111101001100001001100011011111100110000101111100000110101011
11110101111110011100101110010010111000010000001011001101111110111111100011111111
